Bitbucket repo
https://incofab@bitbucket.org/incofab/game.git

CSS Layout table
// lg 
@media (min-width:901px)  {}
// md
@media (max-width:900px)  {}
// sm
@media (max-width:650px)  {} 
// xs
@media (max-width:480px)  {}
